<svg xmlns="http://www.w3.org/2000/svg" width="321.013" height="106.748">
    <path data-name="signature_spaces_white" d="M14.03 103.01C7.913 100.472 1.718 93.49.343 85.227a26.377 26.377 0 0 1 8.643-24.072c2.111-1.784 4.346-3.4 6.541-4.95a72.131 72.131 0 0 0 8.339-6.638l.2-.186c1.307-1.269 3.509-3.371 3.784-4.957.214-1.215-.348-2.689-.938-4.262a25.284 25.284 0 0 1-.831-2.433c-1.142-4.311-2.7-10.214 2.39-14.646A10.193 10.193 0 0 1 39.526 21.6a11.753 11.753 0 0 1 7.187 10.114 19.125 19.125 0 0 1-1.27 6.508c-.25.815-.518 1.627-.736 2.436-.051.207-1.027 3.185.33 5.561.863 1.5 2.568 2.535 5.073 3.06a7.79 7.79 0 0 0 5.831-1.557c2.236-1.9 3.346-5.4 3.272-10.422.012-.563.636-9.82 4.424-14.8.185-.316 3.074-4.672 13.222-9.231.221-.087 10.872-4.314 10-10.969a2.04 2.04 0 0 1 4.041-.53c1.278 9.816-11.911 15.03-12.47 15.246-8.9 4.013-11.441 7.761-11.457 7.8-3.138 4.135-3.695 12.5-3.708 12.57.1 6.182-1.5 10.761-4.747 13.492a11.8 11.8 0 0 1-9.218 2.391c-3.743-.786-6.366-2.487-7.84-5.081-2.242-3.978-.706-8.5-.633-8.692.16-.709.445-1.6.732-2.506a16.208 16.208 0 0 0 1.094-5.168 7.7 7.7 0 0 0-4.766-6.5 6.28 6.28 0 0 0-6.75.819c-2.954 2.595-2.369 5.859-1.111 10.544a18.476 18.476 0 0 0 .694 2.028c.719 1.925 1.541 4.093 1.135 6.408-.489 2.891-3.087 5.379-4.973 7.189l-.192.195a79.761 79.761 0 0 1-8.8 6.994c-2.118 1.522-4.292 3.095-6.282 4.77a22.185 22.185 0 0 0-7.242 20.294 18.688 18.688 0 0 0 11.848 14.69l.243.1c.474.269 10.108 5.3 19.851-.288a23.1 23.1 0 0 0 5.36-4.291c.023-.016 3.407-3.812 1.663-5.845a3.716 3.716 0 0 0-2.194-1.5 3.2 3.2 0 0 0-2.3.879l-9.119 10.056a2.069 2.069 0 0 1-2.242.544 2.094 2.094 0 0 1-1.3-1.922l.022-13.648-12.328-5.83a2.031 2.031 0 0 1 .243-3.777l12.964-4.058 1.763-13.655a2.035 2.035 0 0 1 3.678-.921l7.845 11.2L53.9 63.6a2.035 2.035 0 0 1 2.028 3.221l-7.687 10.297c8.3 5.334 11.55 13.36 12.8 19.51a2.034 2.034 0 1 1-3.988.808c-1.174-5.765-4.354-13.4-12.762-17.929a2.031 2.031 0 0 1-1.031-1.35 1.985 1.985 0 0 1 .362-1.647l5.863-7.876-9.634 1.909a2.07 2.07 0 0 1-2.069-.832L32.2 61.737l-1.257 9.747a2.03 2.03 0 0 1-1.4 1.679L20.3 76.056l8.8 4.164a2.043 2.043 0 0 1 1.164 1.839l-.019 9.666 5.675-6.248.189-.189a7.018 7.018 0 0 1 5.591-1.874 7.573 7.573 0 0 1 4.846 3.028c3.182 3.668.31 8.734-1.913 11.119a29.284 29.284 0 0 1-1.535 1.506 24.17 24.17 0 0 1-16.782 6.571 31.631 31.631 0 0 1-12.286-2.628zm273.747-10.7a.742.742 0 0 1 .083-1.017l5.282-4.825a.734.734 0 0 1 .984 0c10.228 9.124 15.519 3.089 15.43.189-.082-2.841-2.406-3.269-10.227-6.516s-9.949-7.82-9.949-12.341 3.3-11.509 14.294-11.509c9.088 0 13.324 4.491 14.523 6.056a.757.757 0 0 1-.064.978l-5.078 5.22a.737.737 0 0 1-1.042.007c-6.78-6.53-12.6-3.074-12.6-.154 0 1.945 1.127 3.041 9.863 6.121S320 81.811 320 87.372c0 5.857-5.711 12.869-16.281 12.869-8.919 0-14.434-6.041-15.942-7.931zM207.9 99.46a21.411 21.411 0 0 1-5.178-2.212 21.767 21.767 0 0 1-4.377-3.433 22.3 22.3 0 0 1-3.4-4.43 21.63 21.63 0 0 1-2.179-5.227 22.2 22.2 0 0 1 5.575-21.429 21.2 21.2 0 0 1 4.377-3.437 22.29 22.29 0 0 1 5.178-2.208 21.628 21.628 0 0 1 12.2.17 21.889 21.889 0 0 1 5.691 2.774 1.834 1.834 0 0 1 .71.746 1.217 1.217 0 0 1-.089 1.093l-4.793 6.9a1.118 1.118 0 0 1-.663.56 1.241 1.241 0 0 1-.869-.245 10.713 10.713 0 0 0-3.061-1.64 10.851 10.851 0 0 0-3.544-.575 10.185 10.185 0 0 0-4.282.894 10.326 10.326 0 0 0-3.378 2.443 11.366 11.366 0 0 0-2.214 3.62 12.31 12.31 0 0 0-.79 4.427 12.174 12.174 0 0 0 .79 4.41 11.284 11.284 0 0 0 2.214 3.594 10.375 10.375 0 0 0 3.378 2.428 10.2 10.2 0 0 0 4.282.894 10.947 10.947 0 0 0 6.662-2.244 1.3 1.3 0 0 1 .851-.257 1.152 1.152 0 0 1 .681.518l4.851 7.069a1.139 1.139 0 0 1 .083 1.065 1.844 1.844 0 0 1-.707.72 22.277 22.277 0 0 1-5.745 2.8 20.926 20.926 0 0 1-6.475 1 21.266 21.266 0 0 1-5.779-.788zM85.752 92.31a.745.745 0 0 1 .085-1.017l5.276-4.825a.74.74 0 0 1 .988 0c10.229 9.124 15.518 3.089 15.432.189-.085-2.841-2.406-3.269-10.232-6.516s-9.943-7.82-9.943-12.341 3.292-11.509 14.3-11.509c9.083 0 13.318 4.491 14.519 6.056a.748.748 0 0 1-.064.978l-5.073 5.22a.74.74 0 0 1-1.045.007c-6.777-6.53-12.6-3.074-12.6-.154 0 1.945 1.127 3.041 9.87 6.121s10.715 7.294 10.715 12.855c0 5.857-5.705 12.869-16.283 12.869-8.92-.002-14.441-6.043-15.945-7.933zm174.718 7.177a1.335 1.335 0 0 0 .2-.017h-28.1a1.187 1.187 0 0 1-.924-.36 1.352 1.352 0 0 1-.325-.957V58.374a1.373 1.373 0 0 1 .325-.961 1.205 1.205 0 0 1 .924-.353h28.2a2.146 2.146 0 0 1 .327.032c.061.01.119.02.177.032a.841.841 0 0 1 .67.736.7.7 0 0 1 .225.507v5.7a1.533 1.533 0 0 1-.312.745 1.19 1.19 0 0 1-1 .439h-18.49v8.909h18.52a1.127 1.127 0 0 1 .912.373 1.164 1.164 0 0 1 .31.77v5.917a1.164 1.164 0 0 1-.31.771 1.118 1.118 0 0 1-.912.372h-18.52v8.911h18.491a1.188 1.188 0 0 1 1 .438 1.545 1.545 0 0 1 .312.745v5.7a.719.719 0 0 1-.225.514.851.851 0 0 1-.67.736 1.668 1.668 0 0 1-.177.026l-.031.006a1.896 1.896 0 0 1-.114.033l.078-.026a1.566 1.566 0 0 1-.26.026h-.078a.439.439 0 0 1-.107.016zm-77.175-.017a1.808 1.808 0 0 1-1.013-.242 1.592 1.592 0 0 1-.559-.815c-.376-.97-.753-1.933-1.112-2.9s-.727-1.93-1.087-2.9h-15.181c-.366.97-.73 1.937-1.1 2.9s-.743 1.926-1.1 2.9a1.429 1.429 0 0 1-1.459 1.057h-8.433a1.4 1.4 0 0 1-.9-.283.675.675 0 0 1-.128-.858l15.521-40.152a.865.865 0 0 1 .184-.372 2.164 2.164 0 0 1 .389-.373 2.078 2.078 0 0 1 .486-.27 1.314 1.314 0 0 1 .482-.1h7.324a1.22 1.22 0 0 1 .827.3 3.873 3.873 0 0 1 .517.527l.714 1.628 15.008 38.668a.838.838 0 0 1-.087.932 1.383 1.383 0 0 1-1.08.353zm-12.449-25.932q-.555 1.691-1.1 3.4c-.36 1.143-.729 2.27-1.1 3.384s-.739 2.159-1.1 3.129h8.777L171.946 70.4q-.546 1.455-1.1 3.138zm-47.5 25.933a.748.748 0 0 1-.739-.662V57.806a.743.743 0 0 1 .656-.741h18.158A13.584 13.584 0 0 1 154.985 70.4v.505a13.585 13.585 0 0 1-13.312 13.341H132.8v14.476a.746.746 0 0 1-.656.743l-.087.006zm9.454-23.378h6.568a5.438 5.438 0 0 0 0-10.876H132.8zm138.436 6.413a.6.6 0 0 1-.584-.619v-7.244a.6.6 0 0 1 .584-.619h11.942a.6.6 0 0 1 .583.619v7.244a.6.6 0 0 1-.583.619zm-98.151-37.783a.2.2 0 0 1-.2-.2v-7.877h-8.444a.2.2 0 0 1-.2-.2v-2.613a.2.2 0 0 1 .2-.2h13.891a17.031 17.031 0 0 0 1.536-7.154v-1.842h-14.221a.2.2 0 0 1-.2-.2v-2.645a.2.2 0 0 1 .2-.2h17.541a.2.2 0 0 1 .2.2v4.618a19.325 19.325 0 0 1-1.278 7.225h2.756a.2.2 0 0 1 .2.2v2.614a.2.2 0 0 1-.2.2h-8.444v7.879a.2.2 0 0 1-.2.2zm-18.281 0a.2.2 0 0 1-.193-.2v-3.6h-14.852a.2.2 0 0 1-.193-.2v-2.736a.2.2 0 0 1 .193-.2h18.118a.2.2 0 0 1 .2.2v6.532a.2.2 0 0 1-.2.2zm-23.1 0a.2.2 0 0 1-.192-.2v-5.21h-14.888a.2.2 0 0 1-.191-.2v-2.669a.2.2 0 0 1 .191-.2h18.131a.191.191 0 0 1 .184.2v8.081a.2.2 0 0 1-.187.2zm-24.755 0a.2.2 0 0 1-.206-.192V33.952h-2.205v10.579a.2.2 0 0 1-.2.192h-3.117a.2.2 0 0 1-.2-.192V22.554a.2.2 0 0 1 .2-.192h3.117a.2.2 0 0 1 .2.192v8.334h2.205v-8.334a.2.2 0 0 1 .206-.192h3.113a.2.2 0 0 1 .206.192v21.977a.2.2 0 0 1-.206.192zM88.87 43.181a.2.2 0 0 1-.195-.2v-21.2a.2.2 0 0 1 .195-.2h9.986a.2.2 0 0 1 .2.2V24.4a.2.2 0 0 1-.2.2h-6.605v15.566h7.027a.2.2 0 0 1 .192.2v2.619a.194.194 0 0 1-.192.2zM139 36.9a.2.2 0 0 1-.2-.188V34.23a.2.2 0 0 1 .2-.188h20.422a.2.2 0 0 1 .2.188v2.48a.2.2 0 0 1-.2.188zm-7.483-1.428a.2.2 0 0 1-.206-.195v-4.641h-3.874a.2.2 0 0 1-.2-.194v-2.6a.2.2 0 0 1 .2-.194h3.874v-5.09a.2.2 0 0 1 .206-.194h3.225a.2.2 0 0 1 .2.194v12.717a.2.2 0 0 1-.2.195zm-16.424 0a.2.2 0 0 1-.2-.194V22.556a.2.2 0 0 1 .2-.194h12.287a.2.2 0 0 1 .194.194v2.589a.2.2 0 0 1-.194.194h-8.88v7.152h9.3a.2.2 0 0 1 .2.192v2.592a.2.2 0 0 1-.2.194zm24.675-3.084a.2.2 0 0 1-.2-.2v-10.4a.2.2 0 0 1 .2-.2h18.111a.2.2 0 0 1 .2.2v2.364a.2.2 0 0 1-.2.2h-14.832v1.258h14.721a.2.2 0 0 1 .194.2v2.353a.2.2 0 0 1-.194.2h-14.721v1.286h14.812a.2.2 0 0 1 .2.2v2.337a.2.2 0 0 1-.2.2z" transform="translate(.513 .519)" style="fill:#fff;stroke:transparent;stroke-miterlimit:10"/>
</svg>
