<svg id="signature_minds-lab_white" xmlns="http://www.w3.org/2000/svg" width="720" height="248">
    <defs>
        <clipPath id="clip-path">
            <path id="사각형_168" data-name="사각형 168" transform="translate(0 -162.195)" style="fill:#fff" d="M0 0h720v248H0z"/>
        </clipPath>
        <style>
            .cls-3{fill:#fff;fill-rule:evenodd}
        </style>
    </defs>
    <g id="signature_minds-lab" transform="translate(0 162.195)" style="clip-path:url(#clip-path)">
        <path id="패스_115" data-name="패스 115" class="cls-3" d="M41.858-36.126A41.791 41.791 0 0 1 0-77.753a41.48 41.48 0 0 1 10.025-27.024 41.989 41.989 0 0 1 20.721-13.107A47.938 47.938 0 0 1 78.589-162a48.058 48.058 0 0 1 44.03 28.742 35.9 35.9 0 0 1 17.19-4.387 35.725 35.725 0 0 1 35.413 30.763 35.745 35.745 0 0 1 24.825 15.344 5.079 5.079 0 0 1-1.377 7.077 5.143 5.143 0 0 1-7.117-1.37 25.518 25.518 0 0 0-21.134-11.177h-5.126v-5.1a25.443 25.443 0 0 0-25.483-25.343 25.566 25.566 0 0 0-16.5 6.036l-6.181 5.229-2.093-7.8A37.727 37.727 0 0 0 78.589-151.8a37.667 37.667 0 0 0-37.726 37.521v.1q.007.175.009.349l.052 4.366-4.331.723a31.679 31.679 0 0 0-18.775 10.587 31.311 31.311 0 0 0-7.565 20.4 31.555 31.555 0 0 0 31.6 31.432 5.112 5.112 0 0 1 5.126 5.1 5.112 5.112 0 0 1-5.126 5.1" transform="translate(0 .103)"/>
        <path id="패스_117" data-name="패스 117" class="cls-3" d="M213.443-108.776a8.582 8.582 0 0 1-8.606 8.559 8.582 8.582 0 0 1-8.6-8.559 8.582 8.582 0 0 1 8.6-8.559 8.582 8.582 0 0 1 8.606 8.559" transform="translate(104.379 23.814)"/>
        <path id="패스_119" data-name="패스 119" class="cls-3" d="M114.206-101.992a17.233 17.233 0 0 1 6.714 1.349 17.194 17.194 0 0 1 5.484 3.677 17.09 17.09 0 0 1 3.7 5.451 16.96 16.96 0 0 1 1.356 6.679v16.813h-6.929v-16.812c0-7.365-7.842-12.945-15.656-8.916a8.5 8.5 0 0 0-3.62 3.588c-4.8 9.171 3.856 18.386 13.052 14.8a6.323 6.323 0 0 0 1.687-.966 1.93 1.93 0 0 1 2.82.562.149.149 0 0 1 .029.087v5.695a17.384 17.384 0 0 1-8.634 2.3 17.237 17.237 0 0 1-6.714-1.347 17.211 17.211 0 0 1-5.484-3.677 17.121 17.121 0 0 1-3.7-5.453 16.968 16.968 0 0 1-1.356-6.678 16.987 16.987 0 0 1 1.356-6.679 17.114 17.114 0 0 1 3.7-5.451 17.211 17.211 0 0 1 5.484-3.677 17.239 17.239 0 0 1 6.711-1.345zm31.037 0v18.869c0 6.393 7.085 11.169 13.856 6.97a7.112 7.112 0 0 0 3.343-6.047v-19.793h6.929v18.869a15.292 15.292 0 0 1-1.219 6.012 15.393 15.393 0 0 1-3.329 4.908 15.5 15.5 0 0 1-4.936 3.31 15.5 15.5 0 0 1-6.043 1.212 15.5 15.5 0 0 1-6.043-1.212 15.5 15.5 0 0 1-4.936-3.31 15.393 15.393 0 0 1-3.329-4.908 15.292 15.292 0 0 1-1.219-6.012v-18.869zm86.86 33.08a3.539 3.539 0 0 1 4.98-4.946 1.888 1.888 0 0 1 .532.531 3.54 3.54 0 0 1-4.979 4.945 1.888 1.888 0 0 1-.536-.53zm26.879-33.08a17.233 17.233 0 0 1 6.714 1.349 17.211 17.211 0 0 1 5.484 3.677 17.114 17.114 0 0 1 3.7 5.451 16.986 16.986 0 0 1 1.356 6.679v16.813H269.3v-16.812c0-7.365-7.84-12.947-15.656-8.914a8.484 8.484 0 0 0-3.62 3.588c-4.8 9.17 3.854 18.381 13.05 14.8a6.282 6.282 0 0 0 1.682-.961 1.932 1.932 0 0 1 2.826.551.145.145 0 0 1 .029.086v5.7a17.374 17.374 0 0 1-8.632 2.3 17.245 17.245 0 0 1-6.716-1.347 17.2 17.2 0 0 1-5.483-3.677 17.122 17.122 0 0 1-3.7-5.453 16.968 16.968 0 0 1-1.356-6.678 16.986 16.986 0 0 1 1.356-6.679 17.115 17.115 0 0 1 3.7-5.451 17.2 17.2 0 0 1 5.483-3.677 17.246 17.246 0 0 1 6.719-1.345zm-182.689-.342a13.969 13.969 0 0 1 12.744 8.291 12.079 12.079 0 0 1 1.06 5.138v20.883h-6.929v-20.583c0-5.262-6-9.153-11.552-5.257a5.285 5.285 0 0 0-2.2 4.338v21.5h-6.927v-20.581c0-5.262-6-9.153-11.552-5.257a5.284 5.284 0 0 0-2.2 4.337v21.5h-6.928v-20.9a12.368 12.368 0 0 1 1.52-6.065 13.987 13.987 0 0 1 12.271-7.344c.291 0 .587.009.884.026a13.74 13.74 0 0 1 9.467 4.608 13.851 13.851 0 0 1 10.342-4.634zm134.42 0a13.963 13.963 0 0 1 12.765 8.345 12.077 12.077 0 0 1 1.039 5.075v20.892h-6.927v-20.583c0-5.26-6-9.152-11.549-5.262a5.282 5.282 0 0 0-2.2 4.338v21.506h-6.931v-20.582c0-5.26-6-9.152-11.551-5.262a5.287 5.287 0 0 0-2.2 4.34v21.5h-6.929v-20.9a12.376 12.376 0 0 1 1.514-6.055 13.985 13.985 0 0 1 12.272-7.357c.293 0 .587.009.884.026a13.747 13.747 0 0 1 9.473 4.608 13.845 13.845 0 0 1 10.34-4.629zm80 .04v34.271h-7.617v-34.271z" transform="translate(22.239 31.778)"/>
        <path id="패스_121" data-name="패스 121" class="cls-3" d="M422.313-26.819a32.15 32.15 0 0 1 26.832-1.065 23.886 23.886 0 0 1 11.063 9.2l-11.574 8.47a14.381 14.381 0 0 0-11.01-6.544 16.735 16.735 0 0 0-4.119.222 10.008 10.008 0 0 0-3.848 1.552 3.734 3.734 0 0 0-1.305 1.5 4.187 4.187 0 0 0 .7 4.691 9.639 9.639 0 0 0 4.314 2.693c1.475.438 2.987.817 4.493 1.134 2.489.516 4.991 1.1 7.444 1.733a33.828 33.828 0 0 1 6.486 2.393 16.8 16.8 0 0 1 7.3 6.857l.344.631a18.426 18.426 0 0 1 .871 1.967 18.081 18.081 0 0 1-.518 14.035 18.283 18.283 0 0 1-10.366 9.563 42.312 42.312 0 0 1-25.143 1.333 25.291 25.291 0 0 1-15.236-11.01l11.194-8.772a16.434 16.434 0 0 0 8.283 6.445 20.414 20.414 0 0 0 6.641 1.121 20.209 20.209 0 0 0 3.171-.242 13.914 13.914 0 0 0 5.771-2.324 4.208 4.208 0 0 0 1.031-5.894 4.553 4.553 0 0 0-.616-.692A11.105 11.105 0 0 0 440.892 10a41.852 41.852 0 0 0-7.419-1.967 43.926 43.926 0 0 1-11.931-3.842 16.568 16.568 0 0 1-9.248-14.8 18.162 18.162 0 0 1 10.019-16.21zm212.956-38.329 9.806.017L645-21.376s.009.008.009.017.009.009.009.014a.119.119 0 0 0 .032.014l.014-.009h.021a30.877 30.877 0 0 1 42.672.077 31.456 31.456 0 0 1 1.12 44.195A30.909 30.909 0 0 1 645 24.063c-.008 0-.017 0-.021-.008h-.014a.117.117 0 0 0-.032.009c0 .008 0 .017-.014.021s-.008 0-.008.014l-.017 8.527-9.806-.018zM587.63-30.043a30.718 30.718 0 0 1 21.3 8.6l.014.008.014.006a.013.013 0 0 0 .014-.009.048.048 0 0 1 .017 0c.008 0 .008-.009.014-.014v-.018l.019-8.53 9.8.018-.113 62.56-9.8-.017.015-8.532v-.018a.019.019 0 0 1-.006-.017.059.059 0 0 0-.024 0l-.014-.009c-.023.009-.028.009-.037.014a30.86 30.86 0 0 1-42.664-.078 31.2 31.2 0 0 1-9.651-21.875 31.232 31.232 0 0 1 8.528-22.346 30.724 30.724 0 0 1 21.7-9.723c.292-.015.583-.02.874-.02zM500.941-65.39l9.829.018-.156 86.024 39.317.07-.021 11.728-49.145-.087zm-190.03-.341 41.876.075c27.492.051 49.822 22.021 49.775 48.968S380.1 32.146 352.609 32.1l-41.875-.075zm-108.119-.194 21.854.04 50 72.477.021.019h.027l.023-.009c.006 0 .006-.012.014-.017a.147.147 0 0 0 0-.018l.132-72.361 16.382.029-.178 97.753-21.857-.04-50-72.476c-.008-.009-.014-.009-.023-.014s-.014 0-.014 0h-.031c-.009.009-.012.014-.012.023s-.009.009-.009.014L219 31.857l-16.382-.029zm-36.04-.064 16.382.029-.178 97.753-16.382-.029zm-124.5-.223 22.227.04L94.5 3.05a.071.071 0 0 0 .021.028h.042a.056.056 0 0 0 .018-.023l30.272-69.114 22.231.04-.178 97.752-16.372-.033.132-72.372a.016.016 0 0 1 0-.009s0-.009-.006-.014-.008-.009-.017-.014a.016.016 0 0 0-.006-.008h-.025a.035.035 0 0 0-.018.008l-.014.014h-.006L98.886 31.642l-8.786-.016-31.423-72.4-.008-.009c-.008-.009-.011-.009-.011-.009a.063.063 0 0 0-.015-.009h-.029l-.012.009a.12.12 0 0 1-.006.014s0 .009-.008.014a.014.014 0 0 0 0 .009l-.13 72.327-16.382-.029zm624.161 48.089A19.471 19.471 0 0 0 647 1.36a19.381 19.381 0 1 0 38.76.07 19.48 19.48 0 0 0-19.347-19.553zm-78.824-.177A19.475 19.475 0 0 0 568.18 1.2a19.377 19.377 0 1 0 38.753.07 19.486 19.486 0 0 0-19.344-19.57zM327.351-49.063l-.116 64.478 25.405.046c18.139.032 32.913-14.4 32.945-32.18s-14.69-32.266-32.829-32.3z" transform="translate(22.38 50.954)"/>
    </g>
</svg>
