<svg id="img_stp" xmlns="http://www.w3.org/2000/svg" width="400" height="80" viewBox="0 0 400 80">
    <defs>
        <clipPath id="clip-path">
            <path id="사각형_586" data-name="사각형 586" style="fill:none" d="M0 0h400v80H0z"/>
        </clipPath>
        <style>
            .cls-3{fill:#fff}
        </style>
    </defs>
    <g id="그룹_12" data-name="그룹 12" style="clip-path:url(#clip-path)">
        <path id="패스_12464" data-name="패스 12464" class="cls-3" d="M261.479 79.484a4.895 4.895 0 0 0 0-9.79h-14.621v9.79z" transform="translate(-176.191 -49.656)"/>
        <path id="패스_12465" data-name="패스 12465" class="cls-3" d="M37.771 91.721H23.15a6.119 6.119 0 0 1 0-12.237H46.3a4.895 4.895 0 0 1 0-9.79H23.15a15.908 15.908 0 0 0 0 31.816h14.621a8.566 8.566 0 0 1 0 17.132H4.874a4.895 4.895 0 0 0 0 9.79h32.9a18.356 18.356 0 0 0 0-36.711" transform="translate(-.001 -49.656)"/>
        <path id="패스_12466" data-name="패스 12466" class="cls-3" d="M222.556 6.489a4.874 4.874 0 1 0-9.747 0v14.685h9.747z" transform="translate(-151.889 -1.136)"/>
        <path id="패스_12467" data-name="패스 12467" class="cls-3" d="M358.787 1.595h-21.931a4.884 4.884 0 0 0-4.874 4.895V48.1a4.874 4.874 0 1 1 9.747 0V11.385h17.058a4.895 4.895 0 0 1 0 9.79h-7.31a4.895 4.895 0 0 0 0 9.79h7.31a14.685 14.685 0 0 0 0-29.369" transform="translate(-236.946 -1.136)"/>
        <path id="패스_12468" data-name="패스 12468" class="cls-3" d="M251.8 168.224a4.884 4.884 0 0 1-4.874-4.895l.039 11.014a12.184 12.184 0 1 1-24.368 0l-.045-10.873v-.136c0 .14-.009.277-.021.413 0 .039 0 .079-.009.118-.013.126-.034.25-.057.372l-.019.109a5.057 5.057 0 0 1-.094.367l-.027.1a4.435 4.435 0 0 1-.132.361l-.032.084a4.48 4.48 0 0 1-.171.356c-.012.022-.021.045-.033.067-.066.12-.137.236-.212.35l-.031.049c-.08.118-.165.232-.255.342l-.024.031q-.141.171-.3.329l-.015.016q-.163.164-.34.311a4.834 4.834 0 0 1-3.1 1.118 4.884 4.884 0 0 1-4.872-4.895v11.009a21.931 21.931 0 1 0 43.862 0v-11.012a4.884 4.884 0 0 1-4.873 4.895" transform="translate(-151.889 -116.369)"/>
        <path id="패스_12469" data-name="패스 12469" class="cls-3" d="M212.809 120.875a4.874 4.874 0 1 1 9.747 0v-17.132h-9.74z" transform="translate(-151.889 -73.915)"/>
        <path id="패스_12470" data-name="패스 12470" class="cls-3" d="M166.608 74.588a4.884 4.884 0 0 1-4.874 4.895h14.621v-9.79h-14.621a4.884 4.884 0 0 1 4.874 4.895" transform="translate(-115.435 -49.655)"/>
        <path id="패스_12471" data-name="패스 12471" class="cls-3" d="M900.225 18.526h8.585l-.048.33a13.512 13.512 0 0 1-9.656 10.794 3.4 3.4 0 0 0-2.411 3.246v.111a3.39 3.39 0 0 0 1.029 2.442 3.468 3.468 0 0 0 2.4.993 3.392 3.392 0 0 0 1.044-.166c3.916-1.262 7.567-4.06 10.85-8.315l.227-.294.227.294c3.277 4.247 6.963 7.047 10.956 8.321a3.414 3.414 0 0 0 1.038.163 3.474 3.474 0 0 0 2.407-.994 3.39 3.39 0 0 0 1.031-2.443V32.9a3.4 3.4 0 0 0-2.412-3.248 13.512 13.512 0 0 1-9.653-10.794l-.048-.33h8.583a3.483 3.483 0 1 0 0-6.965h-24.149a3.483 3.483 0 1 0 0 6.965" transform="translate(-639.997 -8.237)"/>
        <path id="패스_12472" data-name="패스 12472" class="cls-3" d="M586.337 109.3h-23.758a8.99 8.99 0 0 0 0 17.98h23.758a8.99 8.99 0 0 0 0-17.98m-1.8 11.183H564.4a2.2 2.2 0 0 1 0-4.387h20.133a2.2 2.2 0 0 1 0 4.387" transform="translate(-395.142 -77.876)"/>
        <path id="패스_12473" data-name="패스 12473" class="cls-3" d="M1109.525 120.74h-27.575a7.368 7.368 0 0 0 0 14.735h27.575a7.368 7.368 0 0 0 0-14.735m-.777 8.559h-25.906a1.232 1.232 0 0 1-1.245-1.083 1.19 1.19 0 0 1 1.181-1.3h26.035a1.187 1.187 0 0 1 .875.388 1.2 1.2 0 0 1 .306.912 1.232 1.232 0 0 1-1.245 1.083" transform="translate(-766.987 -86.025)"/>
        <path id="패스_12474" data-name="패스 12474" class="cls-3" d="M1110.733 37.648h-27.769a6.823 6.823 0 0 0 0 13.646h27.769a6.823 6.823 0 0 0 0-13.646m-.713 7.891h-26.228a1.069 1.069 0 0 1 0-2.137h26.228a1.069 1.069 0 0 1 0 2.137" transform="translate(-768.098 -26.824)"/>
        <path id="패스_12475" data-name="패스 12475" class="cls-3" d="M671.609 31.619a3.778 3.778 0 0 0 3.765-3.782V22.8h2.113a3.521 3.521 0 0 0 0-7.042h-2.113v-7.3a3.765 3.765 0 1 0-7.531 0v19.379a3.778 3.778 0 0 0 3.766 3.782" transform="translate(-476.661 -3.33)"/>
        <path id="패스_12476" data-name="패스 12476" class="cls-3" d="M739.378 102.376a3.734 3.734 0 0 0-3.722 3.738v12.9a3.375 3.375 0 0 0 3.364 3.379h32.574a3.375 3.375 0 0 0 3.364-3.379v-12.9a3.722 3.722 0 1 0-7.443 0v.769H743.1v-.769a3.734 3.734 0 0 0-3.722-3.738m28.137 13.224H743.1v-2.654h24.415z" transform="translate(-525.061 -72.941)"/>
        <path id="패스_12477" data-name="패스 12477" class="cls-3" d="M1244.948 81.633h11.006v5.575a3.779 3.779 0 1 0 7.558 0v-5.575h8.661a3.364 3.364 0 1 0 0-6.681h-27.225a3.364 3.364 0 1 0 0 6.681" transform="translate(-885.878 -53.402)"/>
        <path id="패스_12478" data-name="패스 12478" class="cls-3" d="M1339.82 36.733c0 1.842 1.218 3.341 2.716 3.341h6.184l.049.227a3.821 3.821 0 0 0 3.677 3.121 3.919 3.919 0 0 0 3.779-4.037V8.711a3.787 3.787 0 1 0-7.558 0v24.681h-6.132c-1.5 0-2.716 1.5-2.716 3.341" transform="translate(-956.273 -3.33)"/>
        <path id="패스_12479" data-name="패스 12479" class="cls-3" d="M548.119 20.964a3.646 3.646 0 0 0-2.608 3.468v.326a3.59 3.59 0 0 0 1.072 2.573 3.554 3.554 0 0 0 2.509 1.04 3.581 3.581 0 0 0 .973-.136 20.578 20.578 0 0 0 9.779-6.411l.213-.236.213.236a20.6 20.6 0 0 0 9.9 6.419 3.581 3.581 0 0 0 4.547-3.48v-.332a3.646 3.646 0 0 0-2.607-3.468 12.58 12.58 0 0 1-8.166-8.168l-.122-.378h7.478a3.549 3.549 0 0 0 0-7.1h-7.7v-.961a3.479 3.479 0 1 0-6.958 0v.964h-7.822a3.549 3.549 0 0 0 0 7.1h7.587l-.122.378a12.58 12.58 0 0 1-8.166 8.168" transform="translate(-389.189 -.614)"/>
        <path id="패스_12480" data-name="패스 12480" class="cls-3" d="M1076.234 8.932h37.356a2.789 2.789 0 0 0 0-5.577h-15.34v-.286A3.088 3.088 0 0 0 1095.174 0h-.525a3.088 3.088 0 0 0-3.074 3.068v.286h-15.339a2.789 2.789 0 0 0 0 5.577" transform="translate(-766.161)"/>
        <path id="패스_12481" data-name="패스 12481" class="cls-3" d="M1073.44 98.032h38.481a3.122 3.122 0 0 0 0-6.243h-38.481a3.122 3.122 0 0 0 0 6.243" transform="translate(-763.931 -65.398)"/>
        <path id="패스_12482" data-name="패스 12482" class="cls-3" d="M734.263 29.818h5.9a11.441 11.441 0 0 0 10.813-7.762l.066-.195h7.114v6.1a3.758 3.758 0 1 0 7.516 0V8.607a3.758 3.758 0 1 0-7.516 0v6.211h-7.125l-.068-.193A11.693 11.693 0 0 0 739.9 6.861h-5.922a11.468 11.468 0 0 0-11.42 11.922 11.7 11.7 0 0 0 11.707 11.035m-2.536-14.383a4.234 4.234 0 0 1 3.081-1.342h4.417a4.243 4.243 0 0 1 4.22 4.519 4.325 4.325 0 0 1-4.375 3.974h-4.107a4.326 4.326 0 0 1-4.375-3.974 4.22 4.22 0 0 1 1.139-3.178" transform="translate(-515.706 -3.443)"/>
        <path id="패스_12483" data-name="패스 12483" class="cls-3" d="M1024.489 38.348a3.791 3.791 0 0 0 3.779-3.8V8.588a3.779 3.779 0 1 0-7.558 0v25.965a3.791 3.791 0 0 0 3.779 3.8" transform="translate(-728.514 -3.415)"/>
        <path id="패스_12484" data-name="패스 12484" class="cls-3" d="M911.074 110.21h-.588a3.5 3.5 0 0 0-3.485 3.5v10.17a4.088 4.088 0 0 0 4.075 4.092h33.439a3.311 3.311 0 0 0 0-6.621h-29.956v-7.641a3.5 3.5 0 0 0-3.485-3.5" transform="translate(-647.356 -78.523)"/>
        <path id="패스_12485" data-name="패스 12485" class="cls-3" d="M1258.809 110.21h-.588a3.5 3.5 0 0 0-3.485 3.5v10.17a4.088 4.088 0 0 0 4.075 4.092h33.439a3.311 3.311 0 0 0 0-6.621h-29.955v-7.641a3.5 3.5 0 0 0-3.485-3.5" transform="translate(-895.546 -78.523)"/>
        <path id="패스_12486" data-name="패스 12486" class="cls-3" d="M1258.566 26.778h14.889a8.065 8.065 0 0 0 0-16.13h-14.889a8.065 8.065 0 0 0 0 16.13m1.079-9.487h12.667a1.459 1.459 0 0 1 0 2.918h-12.667a1.459 1.459 0 0 1 0-2.918" transform="translate(-892.548 -7.587)"/>
        <path id="패스_12487" data-name="패스 12487" class="cls-3" d="m824.744 230.953-1.117 3.342h2.223z" transform="translate(-587.849 -164.551)"/>
        <path id="패스_12488" data-name="패스 12488" class="cls-3" d="M645.366 235.273a2.06 2.06 0 0 0 2.121 0 1.855 1.855 0 0 0 .692-.93 4.737 4.737 0 0 0 .243-1.659 4.916 4.916 0 0 0-.246-1.7 1.942 1.942 0 0 0-.695-.956 1.986 1.986 0 0 0-2.115 0 1.95 1.95 0 0 0-.7.959 4.858 4.858 0 0 0-.249 1.7 4.622 4.622 0 0 0 .249 1.662 1.877 1.877 0 0 0 .7.927" transform="translate(-459.941 -163.671)"/>
        <path id="패스_12489" data-name="패스 12489" class="cls-3" d="M709.267 231.977a1.225 1.225 0 0 0 .4-.942 1.161 1.161 0 0 0-.382-.918 1.405 1.405 0 0 0-.966-.338h-1.667v2.563h1.545a1.522 1.522 0 0 0 1.074-.366" transform="translate(-504.358 -163.715)"/>
        <path id="패스_12490" data-name="패스 12490" class="cls-3" d="M546.1 225.467h243.67v-19.581H546.1zm93.907-19.019h149.2V224.9h-149.2zM623.153 218.8l2.433-6.834a.763.763 0 0 1 .718-.508h.714a.763.763 0 0 1 .719.508l2.433 6.834a.792.792 0 1 1-1.492.532l-.5-1.417h-3.015l-.507 1.421a.792.792 0 0 1-.745.527h-.011a.8.8 0 0 1-.745-1.063m-15.924-6.65a.691.691 0 0 1 .689-.692h4.355a.7.7 0 0 1 .7.706v.023a.7.7 0 0 1-.7.7h-3.348v2.041h2.813a.7.7 0 0 1 0 1.407h-2.825v2.081h3.422a.7.7 0 0 1 .7.7v.036a.7.7 0 0 1-.7.7h-4.416a.691.691 0 0 1-.689-.692zm-16.854 0a.691.691 0 0 1 .689-.692h2.841a3.648 3.648 0 0 1 1.638.32 2.079 2.079 0 0 1 .938.886 3.058 3.058 0 0 1 .1 2.424 2.272 2.272 0 0 1-.538.759 3.11 3.11 0 0 1-.726.494l1.059 2.4a.8.8 0 1 1-1.462.637l-1.16-2.75h-1.69v2.392a.842.842 0 1 1-1.684 0zm-17.5 1.214a3.511 3.511 0 0 1 1.345-1.5 4.2 4.2 0 0 1 4.063 0 3.477 3.477 0 0 1 1.334 1.494 5.915 5.915 0 0 1 .005 4.615 3.421 3.421 0 0 1-1.328 1.485 4.279 4.279 0 0 1-4.089 0 3.456 3.456 0 0 1-1.337-1.482 5.838 5.838 0 0 1 .006-4.612m-17.192-1.026a.877.877 0 1 1 1.754 0v2.967l2.821-3.558a.765.765 0 0 1 1.2.952l-1.572 2.014 2.182 3.946a.808.808 0 0 1-1.407.794l-1.984-3.5-1.239 1.5v1.531a.877.877 0 1 1-1.754 0z" transform="translate(-389.769 -146.691)"/>
        <path id="패스_12491" data-name="패스 12491" class="cls-3" d="M938.035 229.8a2.107 2.107 0 0 0-.631-.613 3.112 3.112 0 0 0-1.077-.41l-1.551-.355a2.521 2.521 0 0 1-1.065-.459.906.906 0 0 1-.289-.7 1.115 1.115 0 0 1 .142-.566 1.267 1.267 0 0 1 .385-.416 1.807 1.807 0 0 1 .562-.256 2.5 2.5 0 0 1 .665-.088 2.733 2.733 0 0 1 .883.137 1.474 1.474 0 0 1 .669.453 1.246 1.246 0 0 1 .219.395.647.647 0 0 0 .6.457.628.628 0 0 0 .59-.853 2.359 2.359 0 0 0-.194-.371 2.558 2.558 0 0 0-1.056-.9 3.888 3.888 0 0 0-1.722-.342 3.768 3.768 0 0 0-1.569.311 2.62 2.62 0 0 0-1.085.869 2.161 2.161 0 0 0-.391 1.3 1.952 1.952 0 0 0 .541 1.427 2.845 2.845 0 0 0 1.467.736l1.586.36a3.023 3.023 0 0 1 .772.271 1.353 1.353 0 0 1 .495.427 1.081 1.081 0 0 1 .174.622 1.007 1.007 0 0 1-.257.695 1.645 1.645 0 0 1-.7.442 3.034 3.034 0 0 1-1 .154 2.681 2.681 0 0 1-.932-.157 1.855 1.855 0 0 1-.721-.465 1.5 1.5 0 0 1-.335-.56.514.514 0 0 0-.529-.371.666.666 0 0 0-.5.23.763.763 0 0 0 .059.986 2.659 2.659 0 0 0 .767.748 3.571 3.571 0 0 0 1.03.45 4.48 4.48 0 0 0 1.163.151 4.339 4.339 0 0 0 1.719-.308 2.614 2.614 0 0 0 1.106-.834 1.939 1.939 0 0 0 .388-1.177 3.3 3.3 0 0 0-.081-.706 2.184 2.184 0 0 0-.3-.712" transform="translate(-665.218 -160.243)"/>
        <path id="패스_12492" data-name="패스 12492" class="cls-3" d="M994.622 225.269h-5.3a.567.567 0 0 0 0 1.133h2.087v6.644a.625.625 0 1 0 1.25 0V226.4h1.965a.567.567 0 0 0 0-1.133" transform="translate(-705.707 -160.501)"/>
        <path id="패스_12493" data-name="패스 12493" class="cls-3" d="M1046.919 225.672a.608.608 0 0 0-.572-.4h-.512a.608.608 0 0 0-.572.4l-2.592 7.211a.59.59 0 0 0 .553.791h.006a.588.588 0 0 0 .553-.39l.653-1.813h3.316l.648 1.812a.588.588 0 1 0 1.106-.4zm-2.176 4.671 1.343-3.865 1.343 3.865z" transform="translate(-744.163 -160.501)"/>
        <path id="패스_12494" data-name="패스 12494" class="cls-3" d="M1109.41 225.557a3.649 3.649 0 0 0-1.545-.287h-2.732a.591.591 0 0 0-.59.593v7.215a.6.6 0 0 0 .595.6h.049a.6.6 0 0 0 .595-.6v-2.919h2.1l1.334 3.153a.6.6 0 1 0 1.093-.473l-1.258-2.9a3.166 3.166 0 0 0 .761-.448 2.166 2.166 0 0 0 .59-.738 2.826 2.826 0 0 0-.072-2.383 1.986 1.986 0 0 0-.914-.817m-.527 3.215a2.127 2.127 0 0 1-1.354.381h-1.748v-2.889h1.962a1.8 1.8 0 0 1 1.184.361 1.291 1.291 0 0 1 .437 1.057 1.309 1.309 0 0 1-.481 1.09" transform="translate(-788.348 -160.501)"/>
        <path id="패스_12495" data-name="패스 12495" class="cls-3" d="M1166.452 225.269h-5.3a.567.567 0 0 0 0 1.133h2.087v6.644a.625.625 0 1 0 1.251 0V226.4h1.965a.567.567 0 0 0 0-1.133" transform="translate(-828.348 -160.501)"/>
        <path id="패스_12496" data-name="패스 12496" class="cls-3" d="M1261.114 225.269a.629.629 0 0 0-.628.631v4.845a2.409 2.409 0 0 1-.226 1.107 1.444 1.444 0 0 1-.651.652 2.237 2.237 0 0 1-1.009.212 1.858 1.858 0 0 1-1.369-.486 2.01 2.01 0 0 1-.489-1.485V225.9a.629.629 0 0 0-.628-.631h-.024a.629.629 0 0 0-.628.631v4.688a4.306 4.306 0 0 0 .316 1.744 2.222 2.222 0 0 0 1 1.087 4.63 4.63 0 0 0 3.62.006 2.252 2.252 0 0 0 1.015-1.061 3.941 3.941 0 0 0 .324-1.677V225.9a.629.629 0 0 0-.628-.631" transform="translate(-896.064 -160.501)"/>
        <path id="패스_12497" data-name="패스 12497" class="cls-3" d="M1320.259 225.577a3.986 3.986 0 0 0-1.606-.308h-2.325a.576.576 0 0 0-.574.577v7.195a.631.631 0 1 0 1.261 0V230.6h1.806a3.6 3.6 0 0 0 1.548-.314 2.418 2.418 0 0 0 1.041-.9 2.611 2.611 0 0 0 .373-1.428 2.434 2.434 0 0 0-1.525-2.377m-.17 3.537a1.851 1.851 0 0 1-1.3.462h-1.777v-3.3h1.731a2.068 2.068 0 0 1 1.331.416 1.437 1.437 0 0 1 .521 1.194 1.589 1.589 0 0 1-.5 1.229" transform="translate(-939.096 -160.501)"/>
    </g>
</svg>
